[
  {
    "name": "Open Field beside Ang Mo Kio Library",
    "area": "Central",
    "nearest_mrt": "Ang Mo Kio"
  },
  {
    "name": "Tampines Junior Collage",
    "area": "North East",
    "nearest_mrt": "Tampines East"
  },
  {
    "name": "Woodlands Stadium",
    "area": "North West",
    "nearest_mrt": "Marsiling"
  },
  {
    "name": "Jurong West Stadium",
    "area": "South West",
    "nearest_mrt": "Pioneer"
  },
  {
    "name": "Bedok Stadium",
    "area": "South East",
    "nearest_mrt": "Bedok"
  }
]